…
      $asv_barcode_alignment
      # A tibble: 184,834 x 6
         position position_bc260 ref_asv read_asv alt   asv_names
            <int>          <dbl> <chr>   <chr>    <chr> <chr>    
       1        1              1 T       -        d     ASV705   
       2        1              1 T       -        d     ASV563   
       3        1              1 T       -        d     ASV242   
       4        1              1 T       -        d     ASV080   
       5        1              1 T       G        w     ASV397   
       6        1              1 T       G        w     ASV151   
       7        1              1 T       G        w     ASV039   
       8        1              1 T       T        w     ASV139   
       9        1              1 T       T        w     ASV083   
      10        1              1 T       T        w     ASV119   
      # ... with 184,824 more rows
      
      $mutations_coordinates
      # A tibble: 1,282 x 12
         mutation~1 start   end n_nuc~2 ref_seq alt_seq mut_id exten~3 exten~4 spann~5
         <chr>      <dbl> <dbl>   <dbl> <chr>   <chr>   <chr>    <dbl>   <dbl> <list> 
       1 d              1    29      29 TCTACA~ ------~ d_1_2~      -2      32 <dbl>  
       2 i             43    43       2 --      AA      i_43_~      40      46 <dbl>  
       3 i            147   147       1 -       T       i_147~     144     150 <dbl>  
       4 d              1    29      29 TCTACA~ ------~ d_1_2~      -2      32 <dbl>  
       5 d              1    69      69 TCTACA~ ------~ d_1_6~      -2      72 <dbl>  
       6 i            147   147       2 --      AA      i_147~     144     150 <dbl>  
       7 d              1    69      69 TCTACA~ ------~ d_1_6~      -2      72 <dbl>  
       8 d              3    18      16 TACACG~ ------~ d_3_1~       0      21 <dbl>  
       9 d            147   150       4 ACCA    ----    d_147~     144     153 <dbl>  
      10 d            172   173       2 AA      --      d_172~     169     176 <dbl>  
      # ... with 1,272 more rows, 2 more variables: n_sites <int>, asv_names <chr>,
      #   and abbreviated variable names 1: mutation_type, 2: n_nucleotides,
      #   3: extended_start, 4: extended_end, 5: spanned_cutSites
      
      $ASV_alterations_width
      # A tibble: 707 x 4
      # Groups:   asv_names [707]
         asv_names width_total_d width_total_w width_total_i
         <chr>             <int>         <int>         <int>
       1 ASV001               26           234             0
       2 ASV002                0           260             1
       3 ASV003                0           260             1
       4 ASV004               37           223             0
       5 ASV005                7           253             0
       6 ASV006               10           250             0
       7 ASV007               20           240             0
       8 ASV008              210            50             0
       9 ASV009                9           251             0
      10 ASV010              129           131             0
      # ... with 697 more rows
      
      $mutations_df
      # A tibble: 324,841 x 5
         asv_names sample position_bc260 alt   perc_in_sample
         <chr>     <fct>           <dbl> <chr>          <dbl>
       1 ASV705    LVM                 1 d               0.01
       2 ASV563    LVM                 1 d               0.02
       3 ASV242    LVM                 1 d               0.06
       4 ASV080    LVM                 1 d               0.06
       5 ASV397    LVM                 1 w               0.02
       6 ASV151    LVM                 1 w               0.04
       7 ASV039    LVM                 1 w               0.25
       8 ASV083    LVM                 1 w               0.06
       9 ASV660    LVM                 1 w               0.01
      10 ASV498    LVM                 1 w               0.03
      # ... with 324,831 more rows
