initialize_REvoBC — initialize_REvoBC • REvoBC
…
#> HMR 59148    54321     53760     51812  40387   38851
#> 
#> $dada2$bimera_percentage
#> [1] 96.1968
#> 
#> $dada2$original_sequences
#> [1] 170
#> 
#> 
#> $map_file_sample
#>                               sample
#> MMUS1469_HMR_BC10v0_MG_120419    HMR
#> 
#> $dada2_asv_prefilter
#> # A tibble: 111 × 3
#>      HMR seq                                                           seq_names
#>    <int> <chr>                                                         <chr>    
#>  1 15731 TCTACACGCGCGTTCAACCGAGGAAAACTACACACACGTTCAACCACGGTTTTTTACACA… SEQ001   
#>  2  2669 TCTACACGCGCGTTCAACCGAGGAAAACTACACACGCATTCAACCACGGTTTATTACACG… SEQ002   
#>  3  2308 GCTCCCTTCCCTTCCCTTCTCTCCGGCCCGCGGCGGCCGCGCTCCTCACCTGGCCAGGGG… SEQ003   
#>  4  2157 TCTACACGCGCGTTCAACCGAGGAAAACTACACACACGTTCAACCACGGTTTGTTACACA… SEQ004   
#>  5  2121 TCTACACGCGCGTTCAACCGAGGAAAACTACACACACATTCAACCGTGGTTTACTACACA… SEQ005   
#>  6  2098 TCTACACGCGCGTTCAACCGAGGAAAACTACACACACATTCAACCGTGGTTTATTACACG… SEQ006   
#>  7  1443 CTGGGCGGCAACAATCCCATTGCGTGTC                                  SEQ007   
#>  8   896 GCTCCCTTCCCTTCCCTTCTCTCCGGCCCGCGGCGGCCGCGCTCCTCACCTGGCCAGGGG… SEQ008   
#>  9   724 CTGGCACTCGTTGCTGGGTCTGGGGACGTC                                SEQ009   
#> 10   608 TCTACACGCGCGTTCAACTACACACACGTTCAACCACGGTTTTTTACACACGCATTCAAC… SEQ010   
#> # … with 101 more rows
…
